fix/Seed-dryier-using-FPGA-and-Arduino-master/fpga/simulation/qsim/Secador.msim.vcd
$comment
	File created using the following command:
		vcd file Secador.msim.vcd -direction
$end
$date
	Fri Nov 16 12:46:38 2018
$end
$version
	ModelSim Version 10.1d
$end
$timescale
	1ps
$end
$scope module Secador_vlg_vec_tst $end
$var reg 1 ! CLK $end
$var reg 1 " CSK $end
$var reg 1 # DATA_MOSI $end
$var reg 1 $ FINISH $end
$var reg 1 % HALT $end
$var reg 1 & load_pin $end
$var wire 1 ' DATA_MISO $end
$var wire 1 ( sampler $end
$scope module i1 $end
$var wire 1 ) gnd $end
$var wire 1 * vcc $end
$var wire 1 + unknown $end
$var tri1 1 , devclrn $end
$var tri1 1 - devpor $end
$var tri1 1 . devoe $end
$var wire 1 / CSK~combout $end
$var wire 1 0 load_pin~combout $end
$var wire 1 1 CLK~combout $end
$var wire 1 2 inst48~combout $end
$var wire 1 3 inst48~clkctrl_outclk $end
$var wire 1 4 inst47|LPM_SHIFTREG_component|_~6_combout $end
$var wire 1 5 inst47|LPM_SHIFTREG_component|_~5_combout $end
$var wire 1 6 inst47|LPM_SHIFTREG_component|_~4_combout $end
$var wire 1 7 inst47|LPM_SHIFTREG_component|_~3_combout $end
$var wire 1 8 inst47|LPM_SHIFTREG_component|_~2_combout $end
$var wire 1 9 inst47|LPM_SHIFTREG_component|_~1_combout $end
$var wire 1 : inst47|LPM_SHIFTREG_component|_~0_combout $end
$var wire 1 ; inst47|LPM_SHIFTREG_component|dffs [7] $end
$var wire 1 < inst47|LPM_SHIFTREG_component|dffs [6] $end
$var wire 1 = inst47|LPM_SHIFTREG_component|dffs [5] $end
$var wire 1 > inst47|LPM_SHIFTREG_component|dffs [4] $end
$var wire 1 ? inst47|LPM_SHIFTREG_component|dffs [3] $end
$var wire 1 @ inst47|LPM_SHIFTREG_component|dffs [2] $end
$var wire 1 A inst47|LPM_SHIFTREG_component|dffs [1] $end
$var wire 1 B inst47|LPM_SHIFTREG_component|dffs [0] $end
$upscope $end
$upscope $end
$enddefinitions $end
#0
$dumpvars
0!
0"
x#
x$
x%
1&
0'
x(
0)
1*
x+
1,
1-
1.
0/
10
01
02
03
14
15
06
17
18
19
0:
0B
0A
0@
0?
0>
0=
0<
0;
$end
#10000
1!
11
0(
12
13
1<
1=
1>
1@
1A
1B
#20000
0!
01
1(
02
03
#30000
1!
11
0(
12
13
#40000
0&
0!
00
01
1(
1:
07
16
02
03
#50000
1!
11
0(
#60000
0!
01
1(
#70000
1!
11
0(
#80000
0!
01
1(
#90000
1!
11
0(
#100000
1"
0!
1/
01
1(
12
13
1;
0>
1?
0B
08
17
04
1'
#110000
1!
11
0(
#120000
0"
0!
0/
01
1(
02
03
#130000
1!
11
0(
#140000
1"
0!
1/
01
1(
12
13
0=
1>
0A
09
18
05
#150000
1!
11
0(
#160000
0"
0!
0/
01
1(
02
03
#170000
1!
11
0(
#180000
1"
0!
1/
01
1(
12
13
0<
1=
0@
0:
19
06
#190000
1!
11
0(
#200000
0"
0!
0/
01
1(
02
03
#210000
1!
11
0(
#220000
1"
0!
1/
01
1(
12
13
0;
1<
0?
1:
07
0'
#230000
1!
11
0(
#240000
0"
0!
0/
01
1(
02
03
#250000
1!
11
0(
#260000
1"
0!
1/
01
1(
12
13
1;
0>
08
1'
#270000
1!
11
0(
#280000
0"
0!
0/
01
1(
02
03
#290000
1!
11
0(
#300000
1"
0!
1/
01
1(
12
13
0=
09
#310000
1!
11
0(
#320000
0"
0!
0/
01
1(
02
03
#330000
1!
11
0(
#340000
1"
0!
1/
01
1(
12
13
0<
0:
#350000
1!
11
0(
#360000
0"
0!
0/
01
1(
02
03
#370000
1!
11
0(
#380000
1"
0!
1/
01
1(
12
13
0;
0'
#390000
1!
11
0(
#400000
0"
0!
0/
01
1(
02
03
#410000
1!
11
0(
#420000
0!
01
1(
#430000
1!
11
0(
#440000
0!
01
1(
#450000
1!
11
0(
#460000
0!
01
1(
#470000
1!
11
0(
#480000
0!
01
1(
#490000
1!
11
0(
#500000
1"
0!
1/
01
1(
12
13
#510000
1!
11
0(
#520000
0"
0!
0/
01
1(
02
03
#530000
1!
11
0(
#540000
1"
0!
1/
01
1(
12
13
#550000
1!
11
0(
#560000
0"
0!
0/
01
1(
02
03
#570000
1!
11
0(
#580000
1"
0!
1/
01
1(
12
13
#590000
1!
11
0(
#600000
0"
0!
0/
01
1(
02
03
#610000
1!
11
0(
#620000
1"
0!
1/
01
1(
12
13
#630000
1!
11
0(
#640000
0"
0!
0/
01
1(
02
03
#650000
1!
11
0(
#660000
1"
0!
1/
01
1(
12
13
#670000
1!
11
0(
#680000
0"
0!
0/
01
1(
02
03
#690000
1!
11
0(
#700000
1"
0!
1/
01
1(
12
13
#710000
1!
11
0(
#720000
0"
0!
0/
01
1(
02
03
#730000
1!
11
0(
#740000
1"
0!
1/
01
1(
12
13
#750000
1!
11
0(
#760000
0"
0!
0/
01
1(
02
03
#770000
1!
11
0(
#780000
1"
0!
1/
01
1(
12
13
#790000
1!
11
0(
#800000
0"
0!
0/
01
1(
02
03
#810000
1!
11
0(
#820000
1"
0!
1/
01
1(
12
13
#830000
1!
11
0(
#840000
0"
0!
0/
01
1(
02
03
#850000
1!
11
0(
#860000
1"
0!
1/
01
1(
12
13
#870000
1!
11
0(
#880000
0"
0!
0/
01
1(
02
03
#890000
1!
11
0(
#900000
1"
0!
1/
01
1(
12
13
#910000
1!
11
0(
#920000
0"
0!
0/
01
1(
02
03
#930000
1!
11
0(
#940000
1"
0!
1/
01
1(
12
13
#950000
1!
11
0(
#960000
0"
0!
0/
01
1(
02
03
#970000
1!
11
0(
#980000
1"
0!
1/
01
1(
12
13
#990000
1!
11
0(
